{
  "ndkDirProperty": "C:\\Users\\huzeda\\AppData\\Local\\Android\\Sdk\\ndk\\21.1.6363665",
  "sdkFolder": "C:\\Users\\huzeda\\AppData\\Local\\Android\\Sdk",
  "sideBySideNdkFolderNames": [
    "21.1.6363665"
  ]
}